Розділ 3 Лабораторна робота №2. Маніпулювання даними | Data Science на R. Лабораторний практикум
…
# Вибірка полів таблиці
starwars %>% 
  select(name, ends_with("color"))

## # A tibble: 87 x 4
##    name               hair_color    skin_color  eye_color
##    <chr>              <chr>         <chr>       <chr>    
##  1 Luke Skywalker     blond         fair        blue     
##  2 C-3PO              <NA>          gold        yellow   
##  3 R2-D2              <NA>          white, blue red      
##  4 Darth Vader        none          white       yellow   
##  5 Leia Organa        brown         light       brown    
##  6 Owen Lars          brown, grey   light       blue     
##  7 Beru Whitesun lars brown         light       blue     
##  8 R5-D4              <NA>          white, red  red      
##  9 Biggs Darklighter  black         light       brown    
## 10 Obi-Wan Kenobi     auburn, white fair        blue-gray
## # ... with 77 more rows

# Створення нового поля у таблиці з послідуючою вибіркою
starwars %>% 
  mutate(name, bmi = mass / ((height / 100)  ^ 2)) %>%
  select(name:mass, bmi)

## # A tibble: 87 x 4
##    name               height  mass   bmi
##    <chr>               <int> <dbl> <dbl>
##  1 Luke Skywalker        172    77  26.0
##  2 C-3PO                 167    75  26.9
##  3 R2-D2                  96    32  34.7
##  4 Darth Vader           202   136  33.3
##  5 Leia Organa           150    49  21.8
##  6 Owen Lars             178   120  37.9
##  7 Beru Whitesun lars    165    75  27.5
##  8 R5-D4                  97    32  34.0
##  9 Biggs Darklighter     183    84  25.1
## 10 Obi-Wan Kenobi        182    77  23.2
## # ... with 77 more rows

# Сортування даних
starwars %>% 
  arrange(desc(mass))

## # A tibble: 87 x 14
##    name     height  mass hair_color skin_color eye_color birth_year sex   gender
##    <chr>     <int> <dbl> <chr>      <chr>      <chr>          <dbl> <chr> <chr> 
##  1 Jabba D~    175  1358 <NA>       green-tan~ orange         600   herm~ mascu~
##  2 Grievous    216   159 none       brown, wh~ green, y~       NA   male  mascu~
##  3 IG-88       200   140 none       metal      red             15   none  mascu~
##  4 Darth V~    202   136 none       white      yellow          41.9 male  mascu~
##  5 Tarfful     234   136 brown      brown      blue            NA   male  mascu~
##  6 Owen La~    178   120 brown, gr~ light      blue            52   male  mascu~
##  7 Bossk       190   113 none       green      red             53   male  mascu~
##  8 Chewbac~    228   112 brown      unknown    blue           200   male  mascu~
##  9 Jek Ton~    180   110 brown      fair       blue            NA   male  mascu~
## 10 Dexter ~    198   102 none       brown      yellow          NA   male  mascu~
## # ... with 77 more rows, and 5 more variables: homeworld <chr>, species <chr>,
## #   films <list>, vehicles <list>, starships <list>
…
Знаходимо кількість літаків і кількість вильотів в усі можливі пункти призначення.

destinations <- group_by(flights, dest)
summarise(destinations,
  planes = n_distinct(tailnum),
  flights = n()
)

## # A tibble: 105 x 3
##    dest  planes flights
##    <chr>  <int>   <int>
##  1 ABQ      108     254
##  2 ACK       58     265
##  3 ALB      172     439
##  4 ANC        6       8
##  5 ATL     1180   17215
##  6 AUS      993    2439
##  7 AVL      159     275
##  8 BDL      186     443
##  9 BGR       46     375
## 10 BHM       45     297
## # ... with 95 more rows
…
